{
  "IcoMoonType": "selection",
  "icons": [
    {
      "icon": {
        "paths": [
          "M778.757 557.392v0l-10.198-5.223 9.203-6.716c19.649-14.177 31.588-37.060 31.588-60.938 0-41.537-33.827-75.115-75.115-75.115-41.537 0-75.115 33.827-75.115 75.115 0 24.126 11.69 46.76 31.588 60.938l9.203 6.716-10.198 5.223c-44.273 23.38-72.876 77.602-72.876 138.291 0 3.731 2.985 6.716 6.716 6.716h221.116c3.731 0 6.716-2.985 6.716-6.716 0.249-60.938-28.355-115.16-72.628-138.291zM672.552 484.267c0-34.075 27.608-61.684 61.684-61.684s61.684 27.608 61.684 61.684c0 34.075-27.608 61.684-61.684 61.684s-61.684-27.608-61.684-61.684zM757.864 562.615l-23.38 46.76-23.629-46.76 9.203-1.741c10.198-1.741 18.157-1.741 28.355 0l9.452 1.741zM838.203 688.719h-207.934l0.497-7.71c3.731-47.755 27.111-89.79 60.938-109.688l6.467-3.731 30.096 59.445c0.249 0.497 0.746 0.995 0.995 1.492 0.497 0.497 0.746 0.746 0.995 0.995l2.239 0.995c0.995 0.249 1.99 0.249 2.985 0l2.487-1.244c0.249-0.249 0.497-0.497 0.746-0.497 0.746-0.746 0.995-1.244 1.244-1.741l30.096-59.445 6.467 3.731c33.578 19.898 56.958 61.932 60.938 109.688l0.746 7.71z",
          "M520.581 2.487c-285.536 0-518.094 228.578-518.094 509.388 0 281.059 232.558 509.388 518.094 509.388 285.785 0 518.342-228.578 518.342-509.388s-232.558-509.388-518.342-509.388zM520.581 997.635c-272.602 0-494.465-217.883-494.465-485.76s221.863-485.76 494.465-485.76c272.602 0 494.465 217.883 494.465 485.76 0.249 267.877-221.614 485.76-494.465 485.76z",
          "M351.697 557.392v0l-10.198-5.223 9.203-6.716c19.649-14.177 31.588-37.060 31.588-60.938 0-41.537-33.827-75.115-75.115-75.115-41.537 0-75.115 33.827-75.115 75.115 0 24.126 11.69 46.76 31.588 60.938l9.203 6.716-10.198 5.223c-44.273 23.38-72.876 77.602-72.876 138.291 0 3.731 2.985 6.716 6.716 6.716h221.116c3.731 0 6.716-2.985 6.716-6.716 0-60.938-28.355-115.16-72.628-138.291zM245.491 484.267c0-34.075 27.608-61.684 61.684-61.684s61.684 27.608 61.684 61.684c0 34.075-27.608 61.684-61.684 61.684s-61.684-27.608-61.684-61.684zM330.555 562.615l-23.38 46.76-23.629-46.76 9.203-1.741c10.198-1.741 18.157-1.741 28.355 0l9.452 1.741zM411.142 688.719h-207.934l0.497-7.71c3.731-47.755 27.111-89.79 60.938-109.688l6.467-3.731 30.096 59.445c0.249 0.497 0.746 0.995 0.995 1.492 0.497 0.497 0.746 0.746 0.995 0.995l2.239 0.995c0.995 0.249 1.99 0.249 2.985 0l2.487-1.244c0.249-0.249 0.497-0.497 0.746-0.497 0.746-0.746 0.995-1.244 1.244-1.741l30.096-59.445 6.467 3.731c33.578 19.898 56.958 61.932 60.938 109.688l0.746 7.71z",
          "M639.969 560.377c0-60.689-28.603-114.911-72.876-138.291l-10.198-5.223 9.203-6.716c19.649-14.177 31.339-37.060 31.339-60.938 0-41.537-33.827-75.115-75.115-75.115-41.537 0-75.115 33.827-75.115 75.115 0 24.126 11.69 46.76 31.339 60.938v0l9.203 6.716-10.198 5.223c-44.273 23.38-72.876 77.602-72.876 138.291 0 3.731 2.985 6.716 6.716 6.716h221.116c4.477 0 7.462-2.985 7.462-6.716zM460.887 349.21c0-34.075 27.608-61.684 61.684-61.684s61.684 27.608 61.684 61.684-27.608 61.684-61.684 61.684c-34.075-0-61.684-27.608-61.684-61.684zM546.2 427.558l-23.38 46.76-23.629-46.76 9.203-1.741c10.198-1.741 18.157-1.741 28.355 0l9.452 1.741zM418.604 553.661l0.746-7.71c3.731-47.755 27.111-89.79 60.938-109.688l6.467-3.731 30.096 59.445c0.249 0.497 0.746 0.995 0.995 1.492 0.497 0.497 0.746 0.746 0.995 0.995l2.487 1.244c0.995 0.249 1.99 0.249 2.985 0l1.99-0.995c0.249-0.249 0.746-0.497 0.995-0.746 0.995-0.995 1.244-1.244 1.244-1.741l30.096-59.694 6.467 3.731c33.827 19.898 56.958 61.932 60.938 109.688l0.497 7.71h-207.934z"
        ],
        "attrs": [
          {},
          {},
          {},
          {}
        ],
        "width": 1041,
        "isMulticolor": false,
        "isMulticolor2": false,
        "grid": 0,
        "tags": [
          "CRT_Icons-01"
        ]
      },
      "attrs": [
        {},
        {},
        {},
        {}
      ],
      "properties": {
        "order": 24,
        "id": 7,
        "name": "CRT_Icons-01",
        "prevSize": 32,
        "code": 59654
      },
      "setIdx": 0,
      "setId": 2,
      "iconIdx": 0
    },
    {
      "icon": {
        "paths": [
          "M520.83 2.487c-285.785 0-518.342 228.578-518.342 509.388 0 281.059 232.558 509.388 518.342 509.388s518.094-228.578 518.094-509.388c-0-280.81-232.558-509.388-518.094-509.388zM520.83 997.635c-272.602 0-494.465-217.883-494.465-485.76s221.863-485.76 494.465-485.76c272.602 0 494.465 217.883 494.465 485.76s-221.863 485.76-494.465 485.76z",
          "M651.41 286.282c-24.624-16.416-52.978-25.121-82.328-25.121-49.248 0-95.013 24.375-122.621 65.166-45.517 67.653-27.608 159.433 40.045 204.949 24.375 16.416 52.978 25.121 82.328 25.121 49.248 0 95.013-24.375 122.621-65.166 22.137-32.832 30.096-72.13 22.385-110.683-7.462-38.801-29.598-72.379-62.43-94.267zM677.526 481.78v0c-24.375 36.065-64.917 57.704-108.693 57.704-26.116 0-51.237-7.71-73.125-22.385-59.943-40.293-75.861-121.875-35.319-181.818 24.375-36.065 64.917-57.704 108.693-57.704 26.116 0 51.237 7.71 73.125 22.385 29.101 19.649 48.75 49.248 55.217 83.572 6.716 34.324-0.249 69.145-19.898 98.246z",
          "M678.273 246.486c-32.334-21.888-70.14-33.329-109.19-33.329-65.166 0-125.855 32.334-162.417 86.308-49.496 73.623-43.278 171.62 15.67 238.527l3.482 3.98-32.832 48.75-2.985 0.497c-4.974 0.995-9.452 3.731-12.188 7.959l-97.5 144.758c-2.985 4.477-4.228 9.452-3.233 14.177 0.746 3.731 2.736 6.716 5.721 8.705l61.684 41.537c6.716 4.477 16.665 1.492 22.137-6.218l97.5-144.758c2.985-4.477 4.228-9.7 2.985-14.675l-0.746-2.985 32.832-48.501 5.223 1.741c20.893 7.462 42.781 11.193 64.668 11.193 65.166 0 126.103-32.334 162.417-86.308 29.101-43.278 39.796-95.51 29.847-146.748-10.446-51.237-39.796-95.51-83.074-124.611zM352.194 793.681l-58.45-39.299 98.495-146.25 58.45 39.299-98.495 146.25zM453.425 629.025l-45.517-30.593 29.847-44.522 5.969 4.974c4.974 4.228 10.198 8.208 15.67 11.69 4.974 3.233 10.446 6.716 16.913 9.949l6.964 3.731-29.847 44.77zM717.322 508.642c-33.329 49.496-88.795 78.846-148.489 78.846-35.568 0-70.14-10.446-99.739-30.593-81.83-55.217-103.47-166.397-48.253-248.227 33.329-49.496 88.795-78.846 148.489-78.846 35.568 0 70.14 10.695 99.739 30.593 39.547 26.614 66.41 67.156 75.612 114.165 8.954 46.76-0.746 94.515-27.36 134.063z"
        ],
        "attrs": [
          {},
          {},
          {}
        ],
        "width": 1041,
        "isMulticolor": false,
        "isMulticolor2": false,
        "grid": 0,
        "tags": [
          "CRT_Icons-02"
        ]
      },
      "attrs": [
        {},
        {},
        {}
      ],
      "properties": {
        "order": 23,
        "id": 6,
        "name": "CRT_Icons-02",
        "prevSize": 32,
        "code": 59655
      },
      "setIdx": 0,
      "setId": 2,
      "iconIdx": 1
    },
    {
      "icon": {
        "paths": [
          "M520.83 2.487c-285.785 0-518.342 228.578-518.342 509.388 0 281.059 232.558 509.388 518.342 509.388s518.094-228.578 518.094-509.388c-0-280.81-232.558-509.388-518.094-509.388zM520.83 997.635c-272.602 0-494.465-217.883-494.465-485.76s221.863-485.76 494.465-485.76c272.602 0 494.465 217.883 494.465 485.76s-221.863 485.76-494.465 485.76z",
          "M520.581 216.391c-117.647 0-213.157 95.759-213.157 213.157 0 76.856 41.537 147.991 108.693 185.549l3.731 1.99v28.603c0 12.188 9.949 22.137 22.137 22.137h157.443c12.188 0 22.137-9.949 22.137-22.137v-28.603l3.731-1.99c67.156-37.557 108.693-108.693 108.693-185.549 0-117.647-95.759-213.157-213.406-213.157zM606.391 601.417v0c-3.482 1.741-5.721 5.472-5.721 9.452v36.314h-159.93v-36.314c0-3.98-2.239-7.462-5.721-9.452-65.663-32.832-106.454-98.744-106.454-171.869 0-105.957 86.308-192.264 192.264-192.264s192.264 86.308 192.264 192.264c0 73.125-41.040 139.037-106.703 171.869z",
          "M593.955 694.688h-150.23c-5.721 0-10.446 4.726-10.446 10.446s4.726 10.446 10.446 10.446h150.23c5.721 0 10.446-4.726 10.446-10.446s-4.726-10.446-10.446-10.446z",
          "M593.955 740.702h-150.23c-5.721 0-10.446 4.726-10.446 10.446s4.726 10.446 10.446 10.446h150.23c5.721 0 10.446-4.726 10.446-10.446s-4.726-10.446-10.446-10.446z",
          "M564.605 786.717h-91.779c-5.721 0-10.446 4.726-10.446 10.446s4.726 10.446 10.446 10.446h91.779c5.721 0 10.446-4.726 10.446-10.446s-4.477-10.446-10.446-10.446z",
          "M518.84 378.559c-5.721 0-10.446 4.726-10.446 10.446v134.311c0 5.721 4.726 10.446 10.446 10.446s10.446-4.726 10.446-10.446v-134.311c0-5.721-4.726-10.446-10.446-10.446z",
          "M418.853 433.279c-1.741-3.482-5.472-5.472-9.203-5.472-1.741 0-3.482 0.497-4.974 1.244-2.487 1.244-4.228 3.482-4.974 6.218s-0.497 5.472 0.746 7.959l59.197 110.683c1.244 2.487 3.482 4.228 6.218 4.974s5.472 0.497 7.959-0.746c4.974-2.736 6.964-8.954 4.228-14.177l-59.197-110.683z",
          "M632.756 428.802v0c-1.492-0.746-3.233-1.244-4.974-1.244-3.98 0-7.462 2.239-9.203 5.472l-58.948 110.683c-1.244 2.487-1.492 5.223-0.746 7.959s2.487 4.974 4.974 6.218c2.487 1.244 5.223 1.492 7.959 0.746s4.974-2.736 6.218-4.974l59.197-110.683c1.244-2.487 1.492-5.223 0.746-7.959-0.995-2.736-2.736-4.726-5.223-6.218z"
        ],
        "attrs": [
          {},
          {},
          {},
          {},
          {},
          {},
          {},
          {}
        ],
        "width": 1041,
        "isMulticolor": false,
        "isMulticolor2": false,
        "grid": 0,
        "tags": [
          "CRT_Icons-03"
        ]
      },
      "attrs": [
        {},
        {},
        {},
        {},
        {},
        {},
        {},
        {}
      ],
      "properties": {
        "order": 22,
        "id": 5,
        "name": "CRT_Icons-03",
        "prevSize": 32,
        "code": 59656
      },
      "setIdx": 0,
      "setId": 2,
      "iconIdx": 2
    },
    {
      "icon": {
        "paths": [
          "M520.83 2.487c-285.785 0-518.342 228.578-518.342 509.388 0 281.059 232.558 509.388 518.342 509.388s518.342-228.578 518.342-509.388c-0.249-280.81-232.806-509.388-518.342-509.388zM520.83 997.635c-272.602 0-494.465-217.883-494.465-485.76s221.863-485.76 494.465-485.76 494.465 217.883 494.465 485.76c-0 267.877-221.863 485.76-494.465 485.76z",
          "M750.9 330.307h-460.39c-9.7 0-17.411 7.71-17.411 17.411v285.536c0 9.7 7.71 17.411 17.411 17.411h178.584v53.227h-61.186c-4.726 0-8.457 3.731-8.457 8.457v44.522c0 4.726 3.731 8.457 8.457 8.457h225.842c4.726 0 8.457-3.731 8.457-8.457v-44.522c0-4.726-3.731-8.457-8.457-8.457h-61.435v-53.227h178.584c9.7 0 17.411-7.71 17.411-17.411v-285.536c0-9.7-7.71-17.411-17.411-17.411zM625.045 720.804v27.608h-208.929v-27.608h208.929zM486.008 703.145v-52.73h69.145v52.73h-69.145zM751.398 633.502h-461.385v-286.282h461.385v286.282z",
          "M333.54 595.447h374.331c4.726 0 8.457-3.731 8.457-8.457v-201.965c0-4.726-3.731-8.457-8.457-8.457h-374.331c-4.726 0-8.457 3.731-8.457 8.457v201.965c0 4.477 3.731 8.457 8.457 8.457zM341.997 393.234h357.418v185.051h-357.418v-185.051z",
          "M644.695 429.548c-2.239 0.249-4.477 1.244-5.969 2.736l-64.42 71.633-63.674-51.983c-2.239-1.741-4.726-2.239-7.462-1.741-2.736 0.746-4.726 2.487-5.721 4.974l-24.872 61.932-22.137-21.888c-1.492-1.492-3.731-2.487-5.969-2.487-1.99 0-3.98 0.746-5.472 1.99l-48.004 41.537c-1.741 1.492-2.736 3.482-2.985 5.721s0.497 4.477 1.99 6.218c2.985 3.482 8.457 3.731 11.939 0.746l42.034-36.314 25.619 25.619c1.99 1.99 4.974 2.985 7.71 2.239 2.985-0.497 5.223-2.487 6.218-4.974l25.619-63.176 60.938 49.745c3.482 2.736 8.705 2.487 11.69-0.995l69.892-77.602c2.985-3.482 2.736-8.954-0.746-11.939-1.99-1.492-4.228-2.239-6.218-1.99z"
        ],
        "attrs": [
          {},
          {},
          {},
          {}
        ],
        "width": 1041,
        "isMulticolor": false,
        "isMulticolor2": false,
        "grid": 0,
        "tags": [
          "CRT_Icons-04"
        ]
      },
      "attrs": [
        {},
        {},
        {},
        {}
      ],
      "properties": {
        "order": 21,
        "id": 4,
        "name": "CRT_Icons-04",
        "prevSize": 32,
        "code": 59657
      },
      "setIdx": 0,
      "setId": 2,
      "iconIdx": 3
    },
    {
      "icon": {
        "paths": [
          "M505.659 784.681c-7.996-13.786-24.539-22.333-40.254-22.333-27.571 0-47.698 20.679-47.698 47.974 0 26.193 20.954 47.974 47.147 47.974 16.819 0 31.983-7.996 40.806-22.057h30.053c-9.65 29.777-39.427 50.731-70.583 50.731-19.576 0-39.427-8.547-53.488-22.333-14.337-14.337-22.057-33.913-22.057-54.316 0-40.806 33.086-75.27 74.443-75.27 16.819 0 33.086 5.79 44.941 17.921v-14.613h22.884v46.32h-26.193z",
          "M648.754 762.072h-15.716v-23.16h59.003v23.16h-15.716v98.981h15.716v23.16h-59.003v-23.16h15.716v-36.394h-55.97v36.394h15.716v23.16h-59.278v-23.16h15.991v-98.981h-15.991v-23.16h59.278v23.16h-15.716v35.016h55.97v-35.016z",
          "M723.748 762.072h-15.716v-23.16h65.068c14.337 0 26.744 1.379 38.048 11.304 11.304 9.65 17.37 23.436 17.37 38.324 0 20.954-14.061 41.908-36.118 43.838l22.609 28.95h16.543v23.16h-33.913l-46.32-65.62v42.184h12.407v23.16h-55.694v-23.16h15.716v-98.981zM766.484 816.112c8.547 0 16.819-0.276 24.263-5.79 6.617-4.963 9.926-12.959 9.926-20.954 0-7.72-3.309-15.716-9.65-20.679-6.066-4.963-12.959-4.963-20.679-4.963h-19.024v52.386h15.164z",
          "M913.163 861.053h15.991v23.16h-59.554v-23.16h15.991v-97.603h-21.506v21.23h-22.057v-45.768h114.421v45.768h-22.057v-21.23h-21.506v97.603z",
          "M446.104 508.416c-85.471 0-165.152 24.263-221.674 80.784-87.125 87.125-86.574 182.247-85.747 295.841h205.131v-97.878c0-54.316 44.666-98.43 99.257-98.43h105.874l202.098-180.592h-304.939z",
          "M446.104 496.284c-85.471 0-165.152-24.263-221.674-80.784-87.125-87.125-86.298-181.971-85.471-295.841h205.131v97.878c0 54.316 44.666 98.43 99.257 98.43h105.874l202.098 180.592h-305.215z"
        ],
        "attrs": [
          {
            "fill": "rgb(0, 130, 146)"
          },
          {
            "fill": "rgb(0, 130, 146)"
          },
          {
            "fill": "rgb(0, 130, 146)"
          },
          {
            "fill": "rgb(0, 130, 146)"
          },
          {
            "fill": "rgb(0, 130, 146)"
          },
          {
            "fill": "rgb(188, 214, 62)"
          }
        ],
        "width": 1078,
        "isMulticolor": true,
        "isMulticolor2": false,
        "grid": 16,
        "tags": [
          "CHRTlogo 2"
        ],
        "colorPermutations": {
          "13014611882146212552552551": [
            {
              "f": 0
            },
            {
              "f": 0
            },
            {
              "f": 0
            },
            {
              "f": 0
            },
            {
              "f": 0
            },
            {
              "f": 1
            }
          ]
        }
      },
      "attrs": [
        {
          "fill": "rgb(0, 130, 146)"
        },
        {
          "fill": "rgb(0, 130, 146)"
        },
        {
          "fill": "rgb(0, 130, 146)"
        },
        {
          "fill": "rgb(0, 130, 146)"
        },
        {
          "fill": "rgb(0, 130, 146)"
        },
        {
          "fill": "rgb(188, 214, 62)"
        }
      ],
      "properties": {
        "order": 20,
        "id": 496,
        "name": "logo",
        "prevSize": 32,
        "code": 59648,
        "codes": [
          59648,
          59649,
          59650,
          59651,
          59652,
          59653
        ]
      },
      "setIdx": 1,
      "setId": 1,
      "iconIdx": 0
    }
  ],
  "height": 1024,
  "metadata": {
    "name": "icomoon"
  },
  "preferences": {
    "showGlyphs": true,
    "showQuickUse": true,
    "showQuickUse2": true,
    "showSVGs": true,
    "fontPref": {
      "prefix": "icon-",
      "metadata": {
        "fontFamily": "icomoon"
      },
      "metrics": {
        "emSize": 1024,
        "baseline": 6.25,
        "whitespace": 50
      },
      "embed": false
    },
    "imagePref": {
      "prefix": "icon-",
      "png": true,
      "useClassSelector": true,
      "color": 0,
      "bgColor": 16777215,
      "classSelector": ".icon"
    },
    "historySize": 100,
    "showCodes": true,
    "gridSize": 16,
    "showGrid": true
  }
}